{
    "User Id":"user123",
    "Transaction Date":"2020-03-15T15:00:00Z",
    "Status":"paid",
    "Total":1000,
},

{
    "User Id":"user123",
    "Transaction Date":"2020-07-15T15:00:00Z",
    "Status":"paid",
    "Total":2000
}